# 3ds Max Wavefront OBJ Exporter v0.97b - (c)2007 guruware
# 创建的文件:01.12.2018 20:09:41

newmtl 03___Default
	Ns 39.0000
	Ni 1.5000
	d 1.0000
	Tr 0.0000
	Tf 1.0000 1.0000 1.0000 
	illum 2
	Ka 0.7255 0.7490 0.5686
	Kd 0.7255 0.7490 0.5686
	Ks 0.8235 0.7486 0.7486
	Ke 0.0000 0.0000 0.0000
	map_Ka F:\3Ds MAX\zhan-dou-ji\bitmap.png
	map_Kd F:\3Ds MAX\zhan-dou-ji\bitmap.png
	map_bump F:\3Ds MAX\zhan-dou-ji\20151203_852f8f45c5f4d28aef13rOAQwwM6WAWW.jpg
	bump F:\3Ds MAX\zhan-dou-ji\20151203_852f8f45c5f4d28aef13rOAQwwM6WAWW.jpg
